<?xml version="1.0" standalone="no"?>
<!DOCTYPE svg PUBLIC "-//W3C//DTD SVG 20010904//EN"
 "http://www.w3.org/TR/2001/REC-SVG-20010904/DTD/svg10.dtd">
<svg version="1.0" xmlns="http://www.w3.org/2000/svg"
 width="108.000000pt" height="81.000000pt" viewBox="0 0 108.000000 81.000000"
 preserveAspectRatio="xMidYMid meet">
<metadata>
Created by potrace 1.10, written by Peter Selinger 2001-2011
</metadata>
<g transform="translate(0.000000,81.000000) scale(0.100000,-0.100000)"
fill="#000000" stroke="none">
<path d="M0 475 l0 -335 65 0 c51 0 65 3 65 15 0 14 -18 21 -70 27 l-25 3 -3
286 -2 287 22 6 c13 3 143 6 290 6 229 0 269 -2 282 -16 14 -13 16 -53 16
-283 0 -194 -3 -270 -12 -279 -8 -8 -50 -12 -124 -12 -87 0 -113 -3 -117 -14
-3 -8 -3 -17 0 -20 4 -3 82 -6 175 -6 134 0 168 3 168 13 0 8 -11 19 -25 25
l-25 12 0 230 0 230 98 0 c80 0 100 -3 113 -17 9 -10 44 -42 77 -72 l62 -53 0
-159 c0 -148 -1 -159 -20 -169 -37 -20 -24 -40 25 -40 l45 0 0 200 c0 143 -3
200 -11 200 -10 0 -102 75 -157 127 -19 18 -45 23 -142 25 l-85 3 -3 58 -3 57
-339 0 -340 0 0 -335z"/>
<path d="M744 547 c-3 -8 -4 -54 -2 -103 l3 -89 115 0 115 0 3 65 c2 62 1 67
-32 103 -35 37 -35 37 -116 37 -58 0 -82 -4 -86 -13z m159 -40 c32 -26 47 -88
27 -112 -15 -18 -120 -21 -138 -3 -20 20 -15 115 6 127 29 17 76 12 105 -12z"/>
<path d="M193 172 c-51 -47 -55 -92 -12 -145 17 -23 28 -27 70 -27 60 0 95 21
104 62 12 52 -2 95 -39 117 -47 29 -85 27 -123 -7z m102 -28 c50 -33 20 -114
-41 -114 -51 0 -74 83 -31 113 29 21 42 21 72 1z"/>
<path d="M813 180 c-42 -25 -56 -54 -50 -103 7 -53 37 -76 99 -77 40 0 50 4
72 31 42 50 31 114 -26 149 -41 25 -55 25 -95 0z m85 -46 c22 -15 29 -49 14
-70 -31 -47 -112 -29 -112 26 0 19 8 34 22 44 28 20 48 20 76 0z"/>
</g>
</svg>
