<?xml version="1.0" standalone="no"?>
<!DOCTYPE svg PUBLIC "-//W3C//DTD SVG 20010904//EN"
 "http://www.w3.org/TR/2001/REC-SVG-20010904/DTD/svg10.dtd">
<svg version="1.0" xmlns="http://www.w3.org/2000/svg"
 width="300.000000pt" height="189.000000pt" viewBox="0 0 300.000000 189.000000"
 preserveAspectRatio="xMidYMid meet">
<metadata>
Created by potrace 1.10, written by Peter Selinger 2001-2011
</metadata>
<g transform="translate(0.000000,189.000000) scale(0.050000,-0.050000)"
fill="#000000" stroke="none">
<path d="M24 3756 c-35 -35 -35 -3697 0 -3732 35 -35 5917 -35 5952 0 35 35
35 3697 0 3732 -35 35 -5917 35 -5952 0z m5816 -1866 l0 -1730 -2840 0 -2840
0 0 1730 0 1730 2840 0 2840 0 0 -1730z"/>
<path d="M684 3076 c-33 -33 -30 -67 7 -105 39 -38 1520 -48 1590 -10 47 25
52 110 7 127 -64 25 -1579 13 -1604 -12z"/>
<path d="M3751 2249 c-40 -41 -46 -566 -7 -605 34 -34 1538 -34 1572 0 39 39
33 564 -7 605 -48 47 -1510 47 -1558 0z m1429 -299 l0 -170 -650 0 -650 0 0
170 0 170 650 0 650 0 0 -170z"/>
<path d="M684 2176 c-33 -33 -30 -67 7 -105 39 -38 2280 -48 2350 -10 44 23
51 79 15 115 -35 35 -2337 35 -2372 0z"/>
<path d="M679 1708 c-82 -98 -76 -98 1203 -98 l1188 0 0 60 0 60 -1182 5
c-1061 5 -1186 2 -1209 -27z"/>
<path d="M684 1216 c-33 -33 -30 -67 7 -105 39 -38 2280 -48 2350 -10 44 23
51 79 15 115 -35 35 -2337 35 -2372 0z"/>
<path d="M4291 989 c-36 -37 -43 -210 -10 -270 26 -50 92 -50 123 0 17 27 39
36 67 29 27 -7 64 6 101 37 32 26 79 49 105 50 71 4 106 44 99 113 -5 52 -14
61 -56 59 -122 -8 -203 -25 -231 -48 -25 -20 -39 -17 -76 18 -54 51 -80 54
-122 12z"/>
<path d="M4832 930 c-57 -58 -27 -138 48 -127 62 9 97 66 68 112 -30 48 -77
54 -116 15z"/>
</g>
</svg>
