<?xml version="1.0" encoding="utf-8"?>
<!-- Generator: Adobe Illustrator 16.0.0, SVG Export Plug-In . SVG Version: 6.00 Build 0)  -->
<!DOCTYPE svg PUBLIC "-//W3C//DTD SVG 1.1//EN" "http://www.w3.org/Graphics/SVG/1.1/DTD/svg11.dtd">
<svg version="1.1" id="Calque_1" xmlns="http://www.w3.org/2000/svg" xmlns:xlink="http://www.w3.org/1999/xlink" x="0px" y="0px"
	 width="53.996px" height="48px" viewBox="0 0 53.996 48" enable-background="new 0 0 53.996 48" xml:space="preserve">
<g>
	<defs>
		<rect id="SVGID_1_" x="-0.002" y="0.223" width="54" height="47.555"/>
	</defs>
	<clipPath id="SVGID_2_">
		<use xlink:href="#SVGID_1_"  overflow="visible"/>
	</clipPath>
	<path clip-path="url(#SVGID_2_)" fill="#EA242F" d="M49.552,4.646c-2.823-2.823-6.56-4.366-10.549-4.366
		c-3.988,0-7.737,1.555-10.56,4.377l-1.475,1.474l-1.497-1.496c-2.823-2.823-6.582-4.389-10.571-4.389
		c-3.978,0-7.726,1.554-10.538,4.365c-2.822,2.823-4.376,6.571-4.365,10.561c0,3.987,1.566,7.726,4.389,10.549l21.463,21.463
		c0.297,0.297,0.697,0.457,1.086,0.457s0.789-0.148,1.085-0.445l21.51-21.43c2.822-2.823,4.377-6.571,4.377-10.561
		C53.918,11.218,52.375,7.469,49.552,4.646 M47.358,23.583C47.358,23.583,49.597,21.343,47.358,23.583"/>
</g>
</svg>
