<?xml version="1.0" standalone="no"?>
<!DOCTYPE svg PUBLIC "-//W3C//DTD SVG 20010904//EN"
 "http://www.w3.org/TR/2001/REC-SVG-20010904/DTD/svg10.dtd">
<svg version="1.0" xmlns="http://www.w3.org/2000/svg"
 width="34.000000pt" height="33.000000pt" viewBox="0 0 34.000000 33.000000"
 preserveAspectRatio="xMidYMid meet">
<metadata>
Created by potrace 1.10, written by Peter Selinger 2001-2011
</metadata>
<g transform="translate(0.000000,33.000000) scale(0.100000,-0.100000)"
fill="#000000" stroke="none">
<path d="M85 314 c-8 -9 -13 -24 -10 -33 4 -13 -2 -16 -33 -16 -36 0 -37 -1
-40 -42 -2 -34 0 -43 12 -43 13 0 16 -15 16 -90 l0 -90 140 0 140 0 0 90 c0
75 3 90 16 90 12 0 14 9 12 43 -3 41 -4 42 -40 42 -31 0 -37 3 -33 16 6 17
-18 49 -35 49 -5 0 -21 -5 -35 -12 -21 -9 -31 -9 -46 0 -26 16 -45 15 -64 -4z
m60 -8 c18 -13 18 -14 -3 -25 -31 -16 -52 -13 -52 7 0 34 23 42 55 18z m103
-13 c3 -19 -2 -21 -48 -24 l-52 -4 34 28 c37 31 62 32 66 0z m-88 -73 l0 -30
-75 0 -75 0 0 30 0 30 75 0 75 0 0 -30z m170 0 l0 -30 -75 0 -75 0 0 30 0 30
75 0 75 0 0 -30z m-170 -80 l0 -40 -60 0 -60 0 0 40 0 40 60 0 60 0 0 -40z
m140 0 l0 -40 -60 0 -60 0 0 40 0 40 60 0 60 0 0 -40z m-140 -90 l0 -40 -60 0
-60 0 0 40 0 40 60 0 60 0 0 -40z m140 0 l0 -40 -60 0 -60 0 0 40 0 40 60 0
60 0 0 -40z"/>
</g>
</svg>
