<?xml version="1.0" encoding="utf-8"?>
<!-- Generator: Adobe Illustrator 16.0.0, SVG Export Plug-In . SVG Version: 6.00 Build 0)  -->
<!DOCTYPE svg PUBLIC "-//W3C//DTD SVG 1.1//EN" "http://www.w3.org/Graphics/SVG/1.1/DTD/svg11.dtd">
<svg version="1.1" id="Calque_1" xmlns="http://www.w3.org/2000/svg" xmlns:xlink="http://www.w3.org/1999/xlink" x="0px" y="0px"
	 width="48px" height="48px" viewBox="0 0 48 48" enable-background="new 0 0 48 48" xml:space="preserve">
<g>
	<path fill="#231F20" d="M23.348,0.346c-13.232,0-24,10.766-24,23.998c0,13.236,10.764,24.002,24,24.002
		c13.231,0,24-10.766,24-24.002C47.348,11.112,36.579,0.346,23.348,0.346L23.348,0.346z M23.348,46.189
		c-12.044,0-21.844-9.797-21.844-21.846c0-12.045,9.8-21.846,21.844-21.846c12.042,0,21.847,9.8,21.847,21.846
		C45.195,36.393,35.391,46.189,23.348,46.189L23.348,46.189z M23.348,46.189"/>
	<path fill="#231F20" d="M23.192,16.515c-0.889,0-1.615,0.722-1.615,1.616v18.241c0,0.894,0.726,1.619,1.615,1.619
		c0.894,0,1.615-0.726,1.615-1.619V18.131C24.808,17.237,24.086,16.515,23.192,16.515L23.192,16.515z M23.192,16.515"/>
	<path fill="#231F20" d="M25.257,12.039c0,1.083-0.881,1.959-1.964,1.959c-1.082,0-1.963-0.876-1.963-1.959
		c0-1.087,0.881-1.963,1.963-1.963C24.376,10.076,25.257,10.952,25.257,12.039L25.257,12.039z M25.257,12.039"/>
</g>
</svg>
