<?xml version="1.0" standalone="no"?>
<!DOCTYPE svg PUBLIC "-//W3C//DTD SVG 20010904//EN"
 "http://www.w3.org/TR/2001/REC-SVG-20010904/DTD/svg10.dtd">
<svg version="1.0" xmlns="http://www.w3.org/2000/svg"
 width="159.000000pt" height="75.000000pt" viewBox="0 0 159.000000 75.000000"
 preserveAspectRatio="xMidYMid meet">
<metadata>
Created by potrace 1.10, written by Peter Selinger 2001-2011
</metadata>
<g transform="translate(0.000000,75.000000) scale(0.100000,-0.100000)"
fill="#000000" stroke="none">
<path d="M587 713 c-11 -11 -8 -691 3 -698 13 -8 878 -6 948 2 l52 6 0 342 0
342 -52 7 c-71 8 -943 8 -951 -1z m951 -60 c2 -15 -7 -28 -33 -46 -30 -20
-166 -139 -225 -197 -86 -85 -173 -150 -199 -150 -36 0 -82 35 -225 174 -34
32 -98 90 -143 128 -62 52 -83 76 -83 94 l0 24 453 -2 452 -3 3 -22z m-785
-195 c50 -49 94 -88 99 -88 20 0 5 -41 -24 -65 -18 -15 -66 -57 -106 -94 -72
-64 -98 -79 -96 -53 1 6 2 103 3 213 1 187 2 200 18 188 9 -8 57 -53 106 -101z
m782 -103 c0 -178 -2 -215 -14 -215 -8 0 -39 26 -70 57 -44 46 -122 114 -160
140 -7 5 212 219 229 226 8 3 15 6 15 6 0 1 0 -96 0 -214z m-584 -81 c36 -38
100 -74 131 -74 24 0 52 16 110 62 26 21 53 38 60 38 7 0 31 -17 54 -38 84
-76 139 -120 213 -172 56 -39 40 -40 -434 -40 -392 0 -455 2 -455 15 0 8 35
41 78 74 42 32 104 84 137 115 33 30 62 55 66 56 3 0 21 -16 40 -36z"/>
<path d="M17 557 c-12 -32 8 -35 233 -32 124 1 231 3 238 4 17 1 15 28 -4 35
-9 3 -116 6 -239 6 -177 0 -224 -3 -228 -13z"/>
<path d="M120 452 c-14 -5 -12 -42 3 -43 71 -5 364 5 372 12 23 23 -19 30
-188 32 -98 1 -182 1 -187 -1z"/>
<path d="M118 319 c-5 -4 -8 -15 -6 -25 3 -18 15 -19 182 -19 177 0 227 8 201
34 -11 10 -361 20 -377 10z"/>
<path d="M4 165 c-3 -8 -3 -19 1 -25 7 -11 451 -15 479 -4 21 8 21 30 0 38 -9
3 -119 6 -245 6 -192 0 -231 -2 -235 -15z"/>
</g>
</svg>
